Practical 3 / Pracical Day 4
…
Practical 3 / Pracical Day 4

Question 1:

Instructions:

Display the flights dataset in an alternative format to simply printing it (i.e. running flights).

Answers:

tibble(flights)

# A tibble: 336,776 × 19
    year month   day dep_time sched_dep_time dep_delay arr_time sched_arr_time
   <int> <int> <int>    <int>          <int>     <dbl>    <int>          <int>
 1  2013     1     1      517            515         2      830            819
 2  2013     1     1      533            529         4      850            830
 3  2013     1     1      542            540         2      923            850
 4  2013     1     1      544            545        -1     1004           1022
 5  2013     1     1      554            600        -6      812            837
 6  2013     1     1      554            558        -4      740            728
 7  2013     1     1      555            600        -5      913            854
 8  2013     1     1      557            600        -3      709            723
 9  2013     1     1      557            600        -3      838            846
10  2013     1     1      558            600        -2      753            745
# ℹ 336,766 more rows
# ℹ 11 more variables: arr_delay <dbl>, carrier <chr>, flight <int>,
#   tailnum <chr>, origin <chr>, dest <chr>, air_time <dbl>, distance <dbl>,
#   hour <dbl>, minute <dbl>, time_hour <dttm>
…
sd(identical_obs) 

[1] 0

# Analysing why we have sd = 0

YV_Jan_distances <- flights |>
  
  filter(month == 1, carrier == "YV") |>
  
    select(carrier, distance)

YV_Jan_distances

# A tibble: 46 × 2
   carrier distance
   <chr>      <dbl>
 1 YV           229
 2 YV           229
 3 YV           229
 4 YV           229
 5 YV           229
 6 YV           229
 7 YV           229
 8 YV           229
 9 YV           229
10 YV           229
# ℹ 36 more rows
…
Answers:

Identify Routes That More Than One Airline Flies

routes_multiple_airlines <- flights |>

  group_by(origin, dest) |>

    summarise(num_airlines = n_distinct(carrier), .groups = "drop") |>

      filter(num_airlines > 1)

routes_multiple_airlines

# A tibble: 128 × 3
   origin dest  num_airlines
   <chr>  <chr>        <int>
 1 EWR    ATL              4
 2 EWR    AUS              2
 3 EWR    BDL              2
 4 EWR    BNA              2
 5 EWR    BOS              3
 6 EWR    BWI              2
 7 EWR    CHS              2
 8 EWR    CLE              2
 9 EWR    CLT              3
10 EWR    CVG              2
# ℹ 118 more rows
Calculate the Average Arrival Delay for Each Airline on These Routes

route_airline_delays <- flights |>

  semi_join(routes_multiple_airlines, by = c("origin", "dest")) |>

    group_by(origin, dest, carrier) |>

      summarise(avg_arr_delay = mean(arr_delay, na.rm = TRUE), .groups = "drop") |>

        left_join(airlines, by = "carrier")

route_airline_delays

# A tibble: 343 × 5
   origin dest  carrier avg_arr_delay name                    
   <chr>  <chr> <chr>           <dbl> <chr>                   
 1 EWR    ATL   9E              -6.25 Endeavor Air Inc.       
 2 EWR    ATL   DL              10.0  Delta Air Lines Inc.    
 3 EWR    ATL   EV              19.5  ExpressJet Airlines Inc.
 4 EWR    ATL   UA              10.5  United Air Lines Inc.   
 5 EWR    AUS   UA               4.28 United Air Lines Inc.   
 6 EWR    AUS   WN             -11.2  Southwest Airlines Co.  
 7 EWR    BDL   EV               6.78 ExpressJet Airlines Inc.
 8 EWR    BDL   UA              22.6  United Air Lines Inc.   
 9 EWR    BNA   EV              17.7  ExpressJet Airlines Inc.
10 EWR    BNA   WN              -2.13 Southwest Airlines Co.  
# ℹ 333 more rows
…
    best_airline = name[which.min(avg_arr_delay)],

    worst_airline = name[which.max(avg_arr_delay)],

    best_avg_delay = min(avg_arr_delay, na.rm = TRUE),

    worst_avg_delay = max(avg_arr_delay, na.rm = TRUE),

    .groups = "drop"

  )

route_best_worst

# A tibble: 128 × 6
   origin dest  best_airline        worst_airline best_avg_delay worst_avg_delay
   <chr>  <chr> <chr>               <chr>                  <dbl>           <dbl>
 1 EWR    ATL   Endeavor Air Inc.   ExpressJet A…         -6.25            19.5 
 2 EWR    AUS   Southwest Airlines… United Air L…        -11.2              4.28
 3 EWR    BDL   ExpressJet Airline… United Air L…          6.78            22.6 
 4 EWR    BNA   Southwest Airlines… ExpressJet A…         -2.13            17.7 
 5 EWR    BOS   ExpressJet Airline… JetBlue Airw…         -4.01             6.87
 6 EWR    BWI   Southwest Airlines… ExpressJet A…          5.95            20.1 
 7 EWR    CHS   United Air Lines I… ExpressJet A…        -14               16.2 
 8 EWR    CLE   ExpressJet Airline… United Air L…         -3.71             5.97
 9 EWR    CLT   US Airways Inc.     ExpressJet A…          0.920           20.5 
10 EWR    CVG   Endeavor Air Inc.   ExpressJet A…          1.40            21.2 
# ℹ 118 more rows
…
